%YAML 1.1
%TAG !u! tag:unity3d.com,2011:
--- !u!29 &1
OcclusionCullingSettings:
  m_ObjectHideFlags: 0
  serializedVersion: 2
  m_OcclusionBakeSettings:
    smallestOccluder: 5
    smallestHole: 0.25
    backfaceThreshold: 100
  m_SceneGUID: 00000000000000000000000000000000
  m_OcclusionCullingData: {fileID: 0}
--- !u!104 &2
RenderSettings:
  m_ObjectHideFlags: 0
  serializedVersion: 9
  m_Fog: 0
  m_FogColor: {r: 0.5, g: 0.5, b: 0.5, a: 1}
  m_FogMode: 3
  m_FogDensity: 0.01
  m_LinearFogStart: 0
  m_LinearFogEnd: 300
  m_AmbientSkyColor: {r: 0.36083478, g: 0.4724675, b: 0.6911765, a: 1}
  m_AmbientEquatorColor: {r: 0.114, g: 0.125, b: 0.133, a: 1}
  m_AmbientGroundColor: {r: 0.047, g: 0.043, b: 0.035, a: 1}
  m_AmbientIntensity: 1
  m_AmbientMode: 0
  m_SubtractiveShadowColor: {r: 0.42, g: 0.478, b: 0.627, a: 1}
  m_SkyboxMaterial: {fileID: 2100000, guid: c6fba66407ce5444ab926a46e28cdf33, type: 2}
  m_HaloStrength: 0.5
  m_FlareStrength: 1
  m_FlareFadeSpeed: 3
  m_HaloTexture: {fileID: 0}
  m_SpotCookie: {fileID: 10001, guid: 0000000000000000e000000000000000, type: 0}
  m_DefaultReflectionMode: 0
  m_DefaultReflectionResolution: 128
  m_ReflectionBounces: 1
  m_ReflectionIntensity: 1
  m_CustomReflection: {fileID: 0}
  m_Sun: {fileID: 0}
  m_IndirectSpecularColor: {r: 0, g: 0, b: 0, a: 1}
  m_UseRadianceAmbientProbe: 0
--- !u!157 &3
LightmapSettings:
  m_ObjectHideFlags: 0
  serializedVersion: 12
  m_GIWorkflowMode: 1
  m_GISettings:
    serializedVersion: 2
    m_BounceScale: 1
    m_IndirectOutputScale: 1
    m_AlbedoBoost: 1
    m_EnvironmentLightingMode: 0
    m_EnableBakedLightmaps: 1
    m_EnableRealtimeLightmaps: 0
  m_LightmapEditorSettings:
    serializedVersion: 12
    m_Resolution: 2
    m_BakeResolution: 40
    m_AtlasSize: 1024
    m_AO: 0
    m_AOMaxDistance: 1
    m_CompAOExponent: 1
    m_CompAOExponentDirect: 0
    m_ExtractAmbientOcclusion: 0
    m_Padding: 2
    m_LightmapParameters: {fileID: 15201, guid: 0000000000000000f000000000000000, type: 0}
    m_LightmapsBakeMode: 0
    m_TextureCompression: 1
    m_FinalGather: 0
    m_FinalGatherFiltering: 1
    m_FinalGatherRayCount: 256
    m_ReflectionCompression: 2
    m_MixedBakeMode: 1
    m_BakeBackend: 0
    m_PVRSampling: 1
    m_PVRDirectSampleCount: 32
    m_PVRSampleCount: 512
    m_PVRBounces: 2
    m_PVREnvironmentSampleCount: 512
    m_PVREnvironmentReferencePointCount: 2048
    m_PVRFilteringMode: 0
    m_PVRDenoiserTypeDirect: 0
    m_PVRDenoiserTypeIndirect: 0
    m_PVRDenoiserTypeAO: 0
    m_PVRFilterTypeDirect: 0
    m_PVRFilterTypeIndirect: 0
    m_PVRFilterTypeAO: 0
    m_PVREnvironmentMIS: 0
    m_PVRCulling: 1
    m_PVRFilteringGaussRadiusDirect: 1
    m_PVRFilteringGaussRadiusIndirect: 5
    m_PVRFilteringGaussRadiusAO: 2
    m_PVRFilteringAtrousPositionSigmaDirect: 0.5
    m_PVRFilteringAtrousPositionSigmaIndirect: 2
    m_PVRFilteringAtrousPositionSigmaAO: 1
    m_ExportTrainingData: 0
    m_TrainingDataDestination: TrainingData
    m_LightProbeSampleCountMultiplier: 4
  m_LightingDataAsset: {fileID: 0}
  m_LightingSettings: {fileID: 4890085278179872738, guid: 869d9bd4009391c4d9ef22b0286c2e3a, type: 2}
--- !u!196 &4
NavMeshSettings:
  serializedVersion: 2
  m_ObjectHideFlags: 0
  m_BuildSettings:
    serializedVersion: 2
    agentTypeID: 0
    agentRadius: 0.5
    agentHeight: 2
    agentSlope: 45
    agentClimb: 0.4
    ledgeDropHeight: 0
    maxJumpAcrossDistance: 0
    minRegionArea: 2
    manualCellSize: 0
    cellSize: 0.16666667
    manualTileSize: 0
    tileSize: 256
    accuratePlacement: 0
    maxJobWorkers: 0
    preserveTilesOutsideBounds: 0
    debug:
      m_Flags: 0
  m_NavMeshData: {fileID: 0}
--- !u!1 &130450786
GameObject:
  m_ObjectHideFlags: 0
  m_CorrespondingSourceObject: {fileID: 0}
  m_PrefabInstance: {fileID: 0}
  m_PrefabAsset: {fileID: 0}
  serializedVersion: 6
  m_Component:
  - component: {fileID: 130450790}
  - component: {fileID: 130450789}
  - component: {fileID: 130450788}
  - component: {fileID: 130450787}
  m_Layer: 0
  m_Name: Quad
  m_TagString: Untagged
  m_Icon: {fileID: 0}
  m_NavMeshLayer: 0
  m_StaticEditorFlags: 0
  m_IsActive: 1
--- !u!23 &130450787
MeshRenderer:
  m_ObjectHideFlags: 0
  m_CorrespondingSourceObject: {fileID: 0}
  m_PrefabInstance: {fileID: 0}
  m_PrefabAsset: {fileID: 0}
  m_GameObject: {fileID: 130450786}
  m_Enabled: 1
  m_CastShadows: 1
  m_ReceiveShadows: 1
  m_DynamicOccludee: 1
  m_StaticShadowCaster: 0
  m_MotionVectors: 1
  m_LightProbeUsage: 1
  m_ReflectionProbeUsage: 1
  m_RayTracingMode: 2
  m_RayTraceProcedural: 0
  m_RenderingLayerMask: 1
  m_RendererPriority: 0
  m_Materials:
  - {fileID: 2100000, guid: c886b8a86a94f69428aa5d492b756552, type: 2}
  m_StaticBatchInfo:
    firstSubMesh: 0
    subMeshCount: 0
  m_StaticBatchRoot: {fileID: 0}
  m_ProbeAnchor: {fileID: 0}
  m_LightProbeVolumeOverride: {fileID: 0}
  m_ScaleInLightmap: 1
  m_ReceiveGI: 1
  m_PreserveUVs: 1
  m_IgnoreNormalsForChartDetection: 0
  m_ImportantGI: 0
  m_StitchLightmapSeams: 1
  m_SelectedEditorRenderState: 3
  m_MinimumChartSize: 4
  m_AutoUVMaxDistance: 0.5
  m_AutoUVMaxAngle: 89
  m_LightmapParameters: {fileID: 0}
  m_SortingLayerID: 0
  m_SortingLayer: 0
  m_SortingOrder: 0
  m_AdditionalVertexStreams: {fileID: 0}
--- !u!64 &130450788
MeshCollider:
  m_ObjectHideFlags: 0
  m_CorrespondingSourceObject: {fileID: 0}
  m_PrefabInstance: {fileID: 0}
  m_PrefabAsset: {fileID: 0}
  m_GameObject: {fileID: 130450786}
  m_Material: {fileID: 0}
  m_IsTrigger: 0
  m_Enabled: 1
  serializedVersion: 4
  m_Convex: 0
  m_CookingOptions: 30
  m_Mesh: {fileID: 10210, guid: 0000000000000000e000000000000000, type: 0}
--- !u!33 &130450789
MeshFilter:
  m_ObjectHideFlags: 0
  m_CorrespondingSourceObject: {fileID: 0}
  m_PrefabInstance: {fileID: 0}
  m_PrefabAsset: {fileID: 0}
  m_GameObject: {fileID: 130450786}
  m_Mesh: {fileID: 10210, guid: 0000000000000000e000000000000000, type: 0}
--- !u!4 &130450790
Transform:
  m_ObjectHideFlags: 0
  m_CorrespondingSourceObject: {fileID: 0}
  m_PrefabInstance: {fileID: 0}
  m_PrefabAsset: {fileID: 0}
  m_GameObject: {fileID: 130450786}
  m_LocalRotation: {x: 0.7071068, y: 0, z: 0, w: 0.7071068}
  m_LocalPosition: {x: -0.25, y: -0.79, z: 2.05}
  m_LocalScale: {x: 15.135707, y: 15.135707, z: 15.135707}
  m_ConstrainProportionsScale: 0
  m_Children: []
  m_Father: {fileID: 0}
  m_RootOrder: 22
  m_LocalEulerAnglesHint: {x: 90, y: 0, z: 0}
--- !u!1001 &133189389
PrefabInstance:
  m_ObjectHideFlags: 0
  serializedVersion: 2
  m_Modification:
    m_TransformParent: {fileID: 0}
    m_Modifications:
    - target: {fileID: 4360247452083184, guid: ea12a6537a165b046ad5f923b286ea00, type: 3}
      propertyPath: m_RootOrder
      value: 17
      objectReference: {fileID: 0}
    - target: {fileID: 4360247452083184, guid: ea12a6537a165b046ad5f923b286ea00, type: 3}
      propertyPath: m_LocalPosition.x
      value: -1.58
      objectReference: {fileID: 0}
    - target: {fileID: 4360247452083184, guid: ea12a6537a165b046ad5f923b286ea00, type: 3}
      propertyPath: m_LocalPosition.y
      value: -0.767
      objectReference: {fileID: 0}
    - target: {fileID: 4360247452083184, guid: ea12a6537a165b046ad5f923b286ea00, type: 3}
      propertyPath: m_LocalPosition.z
      value: -0.27
      objectReference: {fileID: 0}
    - target: {fileID: 4360247452083184, guid: ea12a6537a165b046ad5f923b286ea00, type: 3}
      propertyPath: m_LocalRotation.w
      value: 1
      objectReference: {fileID: 0}
    - target: {fileID: 4360247452083184, guid: ea12a6537a165b046ad5f923b286ea00, type: 3}
      propertyPath: m_LocalRotation.x
      value: 0
      objectReference: {fileID: 0}
    - target: {fileID: 4360247452083184, guid: ea12a6537a165b046ad5f923b286ea00, type: 3}
      propertyPath: m_LocalRotation.y
      value: 0
      objectReference: {fileID: 0}
    - target: {fileID: 4360247452083184, guid: ea12a6537a165b046ad5f923b286ea00, type: 3}
      propertyPath: m_LocalRotation.z
      value: 0
      objectReference: {fileID: 0}
    m_RemovedComponents: []
  m_SourcePrefab: {fileID: 100100000, guid: ea12a6537a165b046ad5f923b286ea00, type: 3}
--- !u!1 &137656401
GameObject:
  m_ObjectHideFlags: 0
  m_CorrespondingSourceObject: {fileID: 0}
  m_PrefabInstance: {fileID: 0}
  m_PrefabAsset: {fileID: 0}
  serializedVersion: 6
  m_Component:
  - component: {fileID: 137656406}
  - component: {fileID: 137656405}
  - component: {fileID: 137656403}
  - component: {fileID: 137656402}
  m_Layer: 0
  m_Name: Main Camera
  m_TagString: MainCamera
  m_Icon: {fileID: 0}
  m_NavMeshLayer: 0
  m_StaticEditorFlags: 0
  m_IsActive: 1
--- !u!81 &137656402
AudioListener:
  m_ObjectHideFlags: 0
  m_CorrespondingSourceObject: {fileID: 0}
  m_PrefabInstance: {fileID: 0}
  m_PrefabAsset: {fileID: 0}
  m_GameObject: {fileID: 137656401}
  m_Enabled: 1
--- !u!124 &137656403
Behaviour:
  m_ObjectHideFlags: 0
  m_CorrespondingSourceObject: {fileID: 0}
  m_PrefabInstance: {fileID: 0}
  m_PrefabAsset: {fileID: 0}
  m_GameObject: {fileID: 137656401}
  m_Enabled: 1
--- !u!20 &137656405
Camera:
  m_ObjectHideFlags: 0
  m_CorrespondingSourceObject: {fileID: 0}
  m_PrefabInstance: {fileID: 0}
  m_PrefabAsset: {fileID: 0}
  m_GameObject: {fileID: 137656401}
  m_Enabled: 1
  serializedVersion: 2
  m_ClearFlags: 1
  m_BackGroundColor: {r: 0.19215687, g: 0.3019608, b: 0.4745098, a: 0}
  m_projectionMatrixMode: 1
  m_GateFitMode: 2
  m_FOVAxisMode: 0
  m_SensorSize: {x: 36, y: 24}
  m_LensShift: {x: 0, y: 0}
  m_FocalLength: 50
  m_NormalizedViewPortRect:
    serializedVersion: 2
    x: 0
    y: 0
    width: 1
    height: 1
  near clip plane: 0.3
  far clip plane: 1000
  field of view: 60
  orthographic: 0
  orthographic size: 5
  m_Depth: -1
  m_CullingMask:
    serializedVersion: 2
    m_Bits: 4294967295
  m_RenderingPath: -1
  m_TargetTexture: {fileID: 0}
  m_TargetDisplay: 0
  m_TargetEye: 3
  m_HDR: 0
  m_AllowMSAA: 1
  m_AllowDynamicResolution: 0
  m_ForceIntoRT: 0
  m_OcclusionCulling: 1
  m_StereoConvergence: 10
  m_StereoSeparation: 0.022
--- !u!4 &137656406
Transform:
  m_ObjectHideFlags: 0
  m_CorrespondingSourceObject: {fileID: 0}
  m_PrefabInstance: {fileID: 0}
  m_PrefabAsset: {fileID: 0}
  m_GameObject: {fileID: 137656401}
  m_LocalRotation: {x: 0, y: 0, z: 0, w: 1}
  m_LocalPosition: {x: 0, y: 1, z: -10}
  m_LocalScale: {x: 1, y: 1, z: 1}
  m_ConstrainProportionsScale: 0
  m_Children: []
  m_Father: {fileID: 0}
  m_RootOrder: 0
  m_LocalEulerAnglesHint: {x: 0, y: 0, z: 0}
--- !u!1 &339366195
GameObject:
  m_ObjectHideFlags: 0
  m_CorrespondingSourceObject: {fileID: 0}
  m_PrefabInstance: {fileID: 0}
  m_PrefabAsset: {fileID: 0}
  serializedVersion: 6
  m_Component:
  - component: {fileID: 339366197}
  - component: {fileID: 339366196}
  m_Layer: 0
  m_Name: Directional Light
  m_TagString: Untagged
  m_Icon: {fileID: 0}
  m_NavMeshLayer: 0
  m_StaticEditorFlags: 0
  m_IsActive: 1
--- !u!108 &339366196
Light:
  m_ObjectHideFlags: 0
  m_CorrespondingSourceObject: {fileID: 0}
  m_PrefabInstance: {fileID: 0}
  m_PrefabAsset: {fileID: 0}
  m_GameObject: {fileID: 339366195}
  m_Enabled: 1
  serializedVersion: 10
  m_Type: 1
  m_Shape: 0
  m_Color: {r: 1, g: 0.85636795, b: 0.7028302, a: 1}
  m_Intensity: 1.1
  m_Range: 10
  m_SpotAngle: 30
  m_InnerSpotAngle: 21.80208
  m_CookieSize: 10
  m_Shadows:
    m_Type: 2
    m_Resolution: -1
    m_CustomResolution: -1
    m_Strength: 1
    m_Bias: 0.05
    m_NormalBias: 0.4
    m_NearPlane: 0.2
    m_CullingMatrixOverride:
      e00: 1
      e01: 0
      e02: 0
      e03: 0
      e10: 0
      e11: 1
      e12: 0
      e13: 0
      e20: 0
      e21: 0
      e22: 1
      e23: 0
      e30: 0
      e31: 0
      e32: 0
      e33: 1
    m_UseCullingMatrixOverride: 0
  m_Cookie: {fileID: 0}
  m_DrawHalo: 0
  m_Flare: {fileID: 0}
  m_RenderMode: 0
  m_CullingMask:
    serializedVersion: 2
    m_Bits: 4294967295
  m_RenderingLayerMask: 1
  m_Lightmapping: 4
  m_LightShadowCasterMode: 0
  m_AreaSize: {x: 1, y: 1}
  m_BounceIntensity: 1
  m_ColorTemperature: 6570
  m_UseColorTemperature: 0
  m_BoundingSphereOverride: {x: 0, y: 0, z: 0, w: 0}
  m_UseBoundingSphereOverride: 0
  m_UseViewFrustumForShadowCasterCull: 1
  m_ShadowRadius: 0
  m_ShadowAngle: 0
--- !u!4 &339366197
Transform:
  m_ObjectHideFlags: 0
  m_CorrespondingSourceObject: {fileID: 0}
  m_PrefabInstance: {fileID: 0}
  m_PrefabAsset: {fileID: 0}
  m_GameObject: {fileID: 339366195}
  m_LocalRotation: {x: -0.12209998, y: -0.86765856, z: 0.40459564, w: -0.26184466}
  m_LocalPosition: {x: 0, y: 3, z: 0}
  m_LocalScale: {x: 1, y: 1, z: 1}
  m_ConstrainProportionsScale: 0
  m_Children: []
  m_Father: {fileID: 0}
  m_RootOrder: 1
  m_LocalEulerAnglesHint: {x: 50.000004, y: -213.586, z: 0}
--- !u!1001 &429103989
PrefabInstance:
  m_ObjectHideFlags: 0
  serializedVersion: 2
  m_Modification:
    m_TransformParent: {fileID: 0}
    m_Modifications:
    - target: {fileID: 4768739239982126, guid: 73c23bb829d341345b00e1b2eaa0417c, type: 3}
      propertyPath: m_RootOrder
      value: 16
      objectReference: {fileID: 0}
    - target: {fileID: 4768739239982126, guid: 73c23bb829d341345b00e1b2eaa0417c, type: 3}
      propertyPath: m_LocalPosition.x
      value: 4.616
      objectReference: {fileID: 0}
    - target: {fileID: 4768739239982126, guid: 73c23bb829d341345b00e1b2eaa0417c, type: 3}
      propertyPath: m_LocalPosition.y
      value: -0.599
      objectReference: {fileID: 0}
    - target: {fileID: 4768739239982126, guid: 73c23bb829d341345b00e1b2eaa0417c, type: 3}
      propertyPath: m_LocalPosition.z
      value: -1.572
      objectReference: {fileID: 0}
    - target: {fileID: 4768739239982126, guid: 73c23bb829d341345b00e1b2eaa0417c, type: 3}
      propertyPath: m_LocalRotation.w
      value: 1
      objectReference: {fileID: 0}
    - target: {fileID: 4768739239982126, guid: 73c23bb829d341345b00e1b2eaa0417c, type: 3}
      propertyPath: m_LocalRotation.x
      value: 0
      objectReference: {fileID: 0}
    - target: {fileID: 4768739239982126, guid: 73c23bb829d341345b00e1b2eaa0417c, type: 3}
      propertyPath: m_LocalRotation.y
      value: 0
      objectReference: {fileID: 0}
    - target: {fileID: 4768739239982126, guid: 73c23bb829d341345b00e1b2eaa0417c, type: 3}
      propertyPath: m_LocalRotation.z
      value: 0
      objectReference: {fileID: 0}
    m_RemovedComponents: []
  m_SourcePrefab: {fileID: 100100000, guid: 73c23bb829d341345b00e1b2eaa0417c, type: 3}
--- !u!1001 &435043978
PrefabInstance:
  m_ObjectHideFlags: 0
  serializedVersion: 2
  m_Modification:
    m_TransformParent: {fileID: 0}
    m_Modifications:
    - target: {fileID: 4748882814200580, guid: e37f58ad399225441b79f6e1dbd96509, type: 3}
      propertyPath: m_RootOrder
      value: 9
      objectReference: {fileID: 0}
    - target: {fileID: 4748882814200580, guid: e37f58ad399225441b79f6e1dbd96509, type: 3}
      propertyPath: m_LocalPosition.x
      value: 3.088
      objectReference: {fileID: 0}
    - target: {fileID: 4748882814200580, guid: e37f58ad399225441b79f6e1dbd96509, type: 3}
      propertyPath: m_LocalPosition.y
      value: -0.55
      objectReference: {fileID: 0}
    - target: {fileID: 4748882814200580, guid: e37f58ad399225441b79f6e1dbd96509, type: 3}
      propertyPath: m_LocalPosition.z
      value: 1.982
      objectReference: {fileID: 0}
    - target: {fileID: 4748882814200580, guid: e37f58ad399225441b79f6e1dbd96509, type: 3}
      propertyPath: m_LocalRotation.w
      value: 1
      objectReference: {fileID: 0}
    - target: {fileID: 4748882814200580, guid: e37f58ad399225441b79f6e1dbd96509, type: 3}
      propertyPath: m_LocalRotation.x
      value: 0
      objectReference: {fileID: 0}
    - target: {fileID: 4748882814200580, guid: e37f58ad399225441b79f6e1dbd96509, type: 3}
      propertyPath: m_LocalRotation.y
      value: 0
      objectReference: {fileID: 0}
    - target: {fileID: 4748882814200580, guid: e37f58ad399225441b79f6e1dbd96509, type: 3}
      propertyPath: m_LocalRotation.z
      value: 0
      objectReference: {fileID: 0}
    m_RemovedComponents: []
  m_SourcePrefab: {fileID: 100100000, guid: e37f58ad399225441b79f6e1dbd96509, type: 3}
--- !u!1001 &653617981
PrefabInstance:
  m_ObjectHideFlags: 0
  serializedVersion: 2
  m_Modification:
    m_TransformParent: {fileID: 0}
    m_Modifications:
    - target: {fileID: 4116371632034942, guid: ee0e694deda5c574f8fc4e8a3722f059, type: 3}
      propertyPath: m_RootOrder
      value: 3
      objectReference: {fileID: 0}
    - target: {fileID: 4116371632034942, guid: ee0e694deda5c574f8fc4e8a3722f059, type: 3}
      propertyPath: m_LocalPosition.x
      value: -2.46
      objectReference: {fileID: 0}
    - target: {fileID: 4116371632034942, guid: ee0e694deda5c574f8fc4e8a3722f059, type: 3}
      propertyPath: m_LocalPosition.y
      value: -0.607
      objectReference: {fileID: 0}
    - target: {fileID: 4116371632034942, guid: ee0e694deda5c574f8fc4e8a3722f059, type: 3}
      propertyPath: m_LocalPosition.z
      value: 2.91
      objectReference: {fileID: 0}
    - target: {fileID: 4116371632034942, guid: ee0e694deda5c574f8fc4e8a3722f059, type: 3}
      propertyPath: m_LocalRotation.w
      value: 1
      objectReference: {fileID: 0}
    - target: {fileID: 4116371632034942, guid: ee0e694deda5c574f8fc4e8a3722f059, type: 3}
      propertyPath: m_LocalRotation.x
      value: 0
      objectReference: {fileID: 0}
    - target: {fileID: 4116371632034942, guid: ee0e694deda5c574f8fc4e8a3722f059, type: 3}
      propertyPath: m_LocalRotation.y
      value: 0
      objectReference: {fileID: 0}
    - target: {fileID: 4116371632034942, guid: ee0e694deda5c574f8fc4e8a3722f059, type: 3}
      propertyPath: m_LocalRotation.z
      value: 0
      objectReference: {fileID: 0}
    m_RemovedComponents: []
  m_SourcePrefab: {fileID: 100100000, guid: ee0e694deda5c574f8fc4e8a3722f059, type: 3}
--- !u!1001 &760891200
PrefabInstance:
  m_ObjectHideFlags: 0
  serializedVersion: 2
  m_Modification:
    m_TransformParent: {fileID: 0}
    m_Modifications:
    - target: {fileID: 4338709893133388, guid: 5e53de4e6fd90c04c941ce34274d847f, type: 3}
      propertyPath: m_RootOrder
      value: 6
      objectReference: {fileID: 0}
    - target: {fileID: 4338709893133388, guid: 5e53de4e6fd90c04c941ce34274d847f, type: 3}
      propertyPath: m_LocalPosition.x
      value: -2.71
      objectReference: {fileID: 0}
    - target: {fileID: 4338709893133388, guid: 5e53de4e6fd90c04c941ce34274d847f, type: 3}
      propertyPath: m_LocalPosition.y
      value: -0.607
      objectReference: {fileID: 0}
    - target: {fileID: 4338709893133388, guid: 5e53de4e6fd90c04c941ce34274d847f, type: 3}
      propertyPath: m_LocalPosition.z
      value: 4.73
      objectReference: {fileID: 0}
    - target: {fileID: 4338709893133388, guid: 5e53de4e6fd90c04c941ce34274d847f, type: 3}
      propertyPath: m_LocalRotation.w
      value: 1
      objectReference: {fileID: 0}
    - target: {fileID: 4338709893133388, guid: 5e53de4e6fd90c04c941ce34274d847f, type: 3}
      propertyPath: m_LocalRotation.x
      value: 0
      objectReference: {fileID: 0}
    - target: {fileID: 4338709893133388, guid: 5e53de4e6fd90c04c941ce34274d847f, type: 3}
      propertyPath: m_LocalRotation.y
      value: 0
      objectReference: {fileID: 0}
    - target: {fileID: 4338709893133388, guid: 5e53de4e6fd90c04c941ce34274d847f, type: 3}
      propertyPath: m_LocalRotation.z
      value: 0
      objectReference: {fileID: 0}
    m_RemovedComponents: []
  m_SourcePrefab: {fileID: 100100000, guid: 5e53de4e6fd90c04c941ce34274d847f, type: 3}
--- !u!1001 &829347897
PrefabInstance:
  m_ObjectHideFlags: 0
  serializedVersion: 2
  m_Modification:
    m_TransformParent: {fileID: 0}
    m_Modifications:
    - target: {fileID: 4450863670763836, guid: ac7474addb7cfe6499b60fbb6fcb0d75, type: 3}
      propertyPath: m_RootOrder
      value: 10
      objectReference: {fileID: 0}
    - target: {fileID: 4450863670763836, guid: ac7474addb7cfe6499b60fbb6fcb0d75, type: 3}
      propertyPath: m_LocalPosition.x
      value: 0.619
      objectReference: {fileID: 0}
    - target: {fileID: 4450863670763836, guid: ac7474addb7cfe6499b60fbb6fcb0d75, type: 3}
      propertyPath: m_LocalPosition.y
      value: 0
      objectReference: {fileID: 0}
    - target: {fileID: 4450863670763836, guid: ac7474addb7cfe6499b60fbb6fcb0d75, type: 3}
      propertyPath: m_LocalPosition.z
      value: 1.466
      objectReference: {fileID: 0}
    - target: {fileID: 4450863670763836, guid: ac7474addb7cfe6499b60fbb6fcb0d75, type: 3}
      propertyPath: m_LocalRotation.w
      value: 1
      objectReference: {fileID: 0}
    - target: {fileID: 4450863670763836, guid: ac7474addb7cfe6499b60fbb6fcb0d75, type: 3}
      propertyPath: m_LocalRotation.x
      value: 0
      objectReference: {fileID: 0}
    - target: {fileID: 4450863670763836, guid: ac7474addb7cfe6499b60fbb6fcb0d75, type: 3}
      propertyPath: m_LocalRotation.y
      value: 0
      objectReference: {fileID: 0}
    - target: {fileID: 4450863670763836, guid: ac7474addb7cfe6499b60fbb6fcb0d75, type: 3}
      propertyPath: m_LocalRotation.z
      value: 0
      objectReference: {fileID: 0}
    m_RemovedComponents: []
  m_SourcePrefab: {fileID: 100100000, guid: ac7474addb7cfe6499b60fbb6fcb0d75, type: 3}
--- !u!1001 &934229412
PrefabInstance:
  m_ObjectHideFlags: 0
  serializedVersion: 2
  m_Modification:
    m_TransformParent: {fileID: 0}
    m_Modifications:
    - target: {fileID: 4227612222200834, guid: a2a2982be53cd2a42adb6648a6bb36dd, type: 3}
      propertyPath: m_RootOrder
      value: 19
      objectReference: {fileID: 0}
    - target: {fileID: 4227612222200834, guid: a2a2982be53cd2a42adb6648a6bb36dd, type: 3}
      propertyPath: m_LocalPosition.x
      value: -0.4
      objectReference: {fileID: 0}
    - target: {fileID: 4227612222200834, guid: a2a2982be53cd2a42adb6648a6bb36dd, type: 3}
      propertyPath: m_LocalPosition.y
      value: -0.44
      objectReference: {fileID: 0}
    - target: {fileID: 4227612222200834, guid: a2a2982be53cd2a42adb6648a6bb36dd, type: 3}
      propertyPath: m_LocalPosition.z
      value: -0.37
      objectReference: {fileID: 0}
    - target: {fileID: 4227612222200834, guid: a2a2982be53cd2a42adb6648a6bb36dd, type: 3}
      propertyPath: m_LocalRotation.w
      value: 1
      objectReference: {fileID: 0}
    - target: {fileID: 4227612222200834, guid: a2a2982be53cd2a42adb6648a6bb36dd, type: 3}
      propertyPath: m_LocalRotation.x
      value: 0
      objectReference: {fileID: 0}
    - target: {fileID: 4227612222200834, guid: a2a2982be53cd2a42adb6648a6bb36dd, type: 3}
      propertyPath: m_LocalRotation.y
      value: 0
      objectReference: {fileID: 0}
    - target: {fileID: 4227612222200834, guid: a2a2982be53cd2a42adb6648a6bb36dd, type: 3}
      propertyPath: m_LocalRotation.z
      value: 0
      objectReference: {fileID: 0}
    m_RemovedComponents: []
  m_SourcePrefab: {fileID: 100100000, guid: a2a2982be53cd2a42adb6648a6bb36dd, type: 3}
--- !u!1001 &934756549
PrefabInstance:
  m_ObjectHideFlags: 0
  serializedVersion: 2
  m_Modification:
    m_TransformParent: {fileID: 0}
    m_Modifications:
    - target: {fileID: 4011507764752036, guid: 828eb901c5cb42b46b8881545ac8d86f, type: 3}
      propertyPath: m_RootOrder
      value: 18
      objectReference: {fileID: 0}
    - target: {fileID: 4011507764752036, guid: 828eb901c5cb42b46b8881545ac8d86f, type: 3}
      propertyPath: m_LocalPosition.x
      value: -1.58
      objectReference: {fileID: 0}
    - target: {fileID: 4011507764752036, guid: 828eb901c5cb42b46b8881545ac8d86f, type: 3}
      propertyPath: m_LocalPosition.y
      value: -0.681
      objectReference: {fileID: 0}
    - target: {fileID: 4011507764752036, guid: 828eb901c5cb42b46b8881545ac8d86f, type: 3}
      propertyPath: m_LocalPosition.z
      value: -0.27
      objectReference: {fileID: 0}
    - target: {fileID: 4011507764752036, guid: 828eb901c5cb42b46b8881545ac8d86f, type: 3}
      propertyPath: m_LocalRotation.w
      value: 1
      objectReference: {fileID: 0}
    - target: {fileID: 4011507764752036, guid: 828eb901c5cb42b46b8881545ac8d86f, type: 3}
      propertyPath: m_LocalRotation.x
      value: 0
      objectReference: {fileID: 0}
    - target: {fileID: 4011507764752036, guid: 828eb901c5cb42b46b8881545ac8d86f, type: 3}
      propertyPath: m_LocalRotation.y
      value: 0
      objectReference: {fileID: 0}
    - target: {fileID: 4011507764752036, guid: 828eb901c5cb42b46b8881545ac8d86f, type: 3}
      propertyPath: m_LocalRotation.z
      value: 0
      objectReference: {fileID: 0}
    m_RemovedComponents: []
  m_SourcePrefab: {fileID: 100100000, guid: 828eb901c5cb42b46b8881545ac8d86f, type: 3}
--- !u!1001 &1014251839
PrefabInstance:
  m_ObjectHideFlags: 0
  serializedVersion: 2
  m_Modification:
    m_TransformParent: {fileID: 0}
    m_Modifications:
    - target: {fileID: 4702915377840352, guid: f3b23b3a049ad9540893ad5f25c046a6, type: 3}
      propertyPath: m_RootOrder
      value: 20
      objectReference: {fileID: 0}
    - target: {fileID: 4702915377840352, guid: f3b23b3a049ad9540893ad5f25c046a6, type: 3}
      propertyPath: m_LocalPosition.x
      value: -4.03
      objectReference: {fileID: 0}
    - target: {fileID: 4702915377840352, guid: f3b23b3a049ad9540893ad5f25c046a6, type: 3}
      propertyPath: m_LocalPosition.y
      value: 0.043
      objectReference: {fileID: 0}
    - target: {fileID: 4702915377840352, guid: f3b23b3a049ad9540893ad5f25c046a6, type: 3}
      propertyPath: m_LocalPosition.z
      value: 0.173
      objectReference: {fileID: 0}
    - target: {fileID: 4702915377840352, guid: f3b23b3a049ad9540893ad5f25c046a6, type: 3}
      propertyPath: m_LocalRotation.w
      value: 1
      objectReference: {fileID: 0}
    - target: {fileID: 4702915377840352, guid: f3b23b3a049ad9540893ad5f25c046a6, type: 3}
      propertyPath: m_LocalRotation.x
      value: 0
      objectReference: {fileID: 0}
    - target: {fileID: 4702915377840352, guid: f3b23b3a049ad9540893ad5f25c046a6, type: 3}
      propertyPath: m_LocalRotation.y
      value: 0
      objectReference: {fileID: 0}
    - target: {fileID: 4702915377840352, guid: f3b23b3a049ad9540893ad5f25c046a6, type: 3}
      propertyPath: m_LocalRotation.z
      value: 0
      objectReference: {fileID: 0}
    m_RemovedComponents: []
  m_SourcePrefab: {fileID: 100100000, guid: f3b23b3a049ad9540893ad5f25c046a6, type: 3}
--- !u!1001 &1057095360
PrefabInstance:
  m_ObjectHideFlags: 0
  serializedVersion: 2
  m_Modification:
    m_TransformParent: {fileID: 0}
    m_Modifications:
    - target: {fileID: 4497775134412264, guid: 01587ba97fe24a446b3e52a619fad9a8, type: 3}
      propertyPath: m_RootOrder
      value: 21
      objectReference: {fileID: 0}
    - target: {fileID: 4497775134412264, guid: 01587ba97fe24a446b3e52a619fad9a8, type: 3}
      propertyPath: m_LocalPosition.x
      value: -0.665
      objectReference: {fileID: 0}
    - target: {fileID: 4497775134412264, guid: 01587ba97fe24a446b3e52a619fad9a8, type: 3}
      propertyPath: m_LocalPosition.y
      value: -0.527
      objectReference: {fileID: 0}
    - target: {fileID: 4497775134412264, guid: 01587ba97fe24a446b3e52a619fad9a8, type: 3}
      propertyPath: m_LocalPosition.z
      value: -2.113
      objectReference: {fileID: 0}
    - target: {fileID: 4497775134412264, guid: 01587ba97fe24a446b3e52a619fad9a8, type: 3}
      propertyPath: m_LocalRotation.w
      value: 1
      objectReference: {fileID: 0}
    - target: {fileID: 4497775134412264, guid: 01587ba97fe24a446b3e52a619fad9a8, type: 3}
      propertyPath: m_LocalRotation.x
      value: 0
      objectReference: {fileID: 0}
    - target: {fileID: 4497775134412264, guid: 01587ba97fe24a446b3e52a619fad9a8, type: 3}
      propertyPath: m_LocalRotation.y
      value: 0
      objectReference: {fileID: 0}
    - target: {fileID: 4497775134412264, guid: 01587ba97fe24a446b3e52a619fad9a8, type: 3}
      propertyPath: m_LocalRotation.z
      value: 0
      objectReference: {fileID: 0}
    m_RemovedComponents: []
  m_SourcePrefab: {fileID: 100100000, guid: 01587ba97fe24a446b3e52a619fad9a8, type: 3}
--- !u!1001 &1160263183
PrefabInstance:
  m_ObjectHideFlags: 0
  serializedVersion: 2
  m_Modification:
    m_TransformParent: {fileID: 0}
    m_Modifications:
    - target: {fileID: 4597122169310472, guid: a14a5921acc53a84bb550eb755aebc05, type: 3}
      propertyPath: m_RootOrder
      value: 5
      objectReference: {fileID: 0}
    - target: {fileID: 4597122169310472, guid: a14a5921acc53a84bb550eb755aebc05, type: 3}
      propertyPath: m_LocalPosition.x
      value: -5.52
      objectReference: {fileID: 0}
    - target: {fileID: 4597122169310472, guid: a14a5921acc53a84bb550eb755aebc05, type: 3}
      propertyPath: m_LocalPosition.y
      value: 0
      objectReference: {fileID: 0}
    - target: {fileID: 4597122169310472, guid: a14a5921acc53a84bb550eb755aebc05, type: 3}
      propertyPath: m_LocalPosition.z
      value: 4.08
      objectReference: {fileID: 0}
    - target: {fileID: 4597122169310472, guid: a14a5921acc53a84bb550eb755aebc05, type: 3}
      propertyPath: m_LocalRotation.w
      value: 1
      objectReference: {fileID: 0}
    - target: {fileID: 4597122169310472, guid: a14a5921acc53a84bb550eb755aebc05, type: 3}
      propertyPath: m_LocalRotation.x
      value: 0
      objectReference: {fileID: 0}
    - target: {fileID: 4597122169310472, guid: a14a5921acc53a84bb550eb755aebc05, type: 3}
      propertyPath: m_LocalRotation.y
      value: 0
      objectReference: {fileID: 0}
    - target: {fileID: 4597122169310472, guid: a14a5921acc53a84bb550eb755aebc05, type: 3}
      propertyPath: m_LocalRotation.z
      value: 0
      objectReference: {fileID: 0}
    m_RemovedComponents: []
  m_SourcePrefab: {fileID: 100100000, guid: a14a5921acc53a84bb550eb755aebc05, type: 3}
--- !u!1001 &1474273270
PrefabInstance:
  m_ObjectHideFlags: 0
  serializedVersion: 2
  m_Modification:
    m_TransformParent: {fileID: 0}
    m_Modifications:
    - target: {fileID: 4346369731676772, guid: ae723d846916794489cd6d8798f00606, type: 3}
      propertyPath: m_RootOrder
      value: 15
      objectReference: {fileID: 0}
    - target: {fileID: 4346369731676772, guid: ae723d846916794489cd6d8798f00606, type: 3}
      propertyPath: m_LocalPosition.x
      value: 2.213
      objectReference: {fileID: 0}
    - target: {fileID: 4346369731676772, guid: ae723d846916794489cd6d8798f00606, type: 3}
      propertyPath: m_LocalPosition.y
      value: 0
      objectReference: {fileID: 0}
    - target: {fileID: 4346369731676772, guid: ae723d846916794489cd6d8798f00606, type: 3}
      propertyPath: m_LocalPosition.z
      value: -2.133
      objectReference: {fileID: 0}
    - target: {fileID: 4346369731676772, guid: ae723d846916794489cd6d8798f00606, type: 3}
      propertyPath: m_LocalRotation.w
      value: 1
      objectReference: {fileID: 0}
    - target: {fileID: 4346369731676772, guid: ae723d846916794489cd6d8798f00606, type: 3}
      propertyPath: m_LocalRotation.x
      value: 0
      objectReference: {fileID: 0}
    - target: {fileID: 4346369731676772, guid: ae723d846916794489cd6d8798f00606, type: 3}
      propertyPath: m_LocalRotation.y
      value: 0
      objectReference: {fileID: 0}
    - target: {fileID: 4346369731676772, guid: ae723d846916794489cd6d8798f00606, type: 3}
      propertyPath: m_LocalRotation.z
      value: 0
      objectReference: {fileID: 0}
    m_RemovedComponents: []
  m_SourcePrefab: {fileID: 100100000, guid: ae723d846916794489cd6d8798f00606, type: 3}
--- !u!1001 &1500141796
PrefabInstance:
  m_ObjectHideFlags: 0
  serializedVersion: 2
  m_Modification:
    m_TransformParent: {fileID: 0}
    m_Modifications:
    - target: {fileID: 4084906253492980, guid: df6df598d2137a940b81a9ac8b3dc459, type: 3}
      propertyPath: m_RootOrder
      value: 2
      objectReference: {fileID: 0}
    - target: {fileID: 4084906253492980, guid: df6df598d2137a940b81a9ac8b3dc459, type: 3}
      propertyPath: m_LocalPosition.x
      value: -2.46
      objectReference: {fileID: 0}
    - target: {fileID: 4084906253492980, guid: df6df598d2137a940b81a9ac8b3dc459, type: 3}
      propertyPath: m_LocalPosition.y
      value: -0.607
      objectReference: {fileID: 0}
    - target: {fileID: 4084906253492980, guid: df6df598d2137a940b81a9ac8b3dc459, type: 3}
      propertyPath: m_LocalPosition.z
      value: 2.91
      objectReference: {fileID: 0}
    - target: {fileID: 4084906253492980, guid: df6df598d2137a940b81a9ac8b3dc459, type: 3}
      propertyPath: m_LocalRotation.w
      value: 1
      objectReference: {fileID: 0}
    - target: {fileID: 4084906253492980, guid: df6df598d2137a940b81a9ac8b3dc459, type: 3}
      propertyPath: m_LocalRotation.x
      value: 0
      objectReference: {fileID: 0}
    - target: {fileID: 4084906253492980, guid: df6df598d2137a940b81a9ac8b3dc459, type: 3}
      propertyPath: m_LocalRotation.y
      value: 0
      objectReference: {fileID: 0}
    - target: {fileID: 4084906253492980, guid: df6df598d2137a940b81a9ac8b3dc459, type: 3}
      propertyPath: m_LocalRotation.z
      value: 0
      objectReference: {fileID: 0}
    m_RemovedComponents: []
  m_SourcePrefab: {fileID: 100100000, guid: df6df598d2137a940b81a9ac8b3dc459, type: 3}
--- !u!1001 &1512278141
PrefabInstance:
  m_ObjectHideFlags: 0
  serializedVersion: 2
  m_Modification:
    m_TransformParent: {fileID: 0}
    m_Modifications:
    - target: {fileID: 4483935580360448, guid: f724abf575e749e468575369197699a1, type: 3}
      propertyPath: m_RootOrder
      value: 12
      objectReference: {fileID: 0}
    - target: {fileID: 4483935580360448, guid: f724abf575e749e468575369197699a1, type: 3}
      propertyPath: m_LocalPosition.x
      value: 2.37
      objectReference: {fileID: 0}
    - target: {fileID: 4483935580360448, guid: f724abf575e749e468575369197699a1, type: 3}
      propertyPath: m_LocalPosition.y
      value: -0.786
      objectReference: {fileID: 0}
    - target: {fileID: 4483935580360448, guid: f724abf575e749e468575369197699a1, type: 3}
      propertyPath: m_LocalPosition.z
      value: 0.14
      objectReference: {fileID: 0}
    - target: {fileID: 4483935580360448, guid: f724abf575e749e468575369197699a1, type: 3}
      propertyPath: m_LocalRotation.w
      value: 1
      objectReference: {fileID: 0}
    - target: {fileID: 4483935580360448, guid: f724abf575e749e468575369197699a1, type: 3}
      propertyPath: m_LocalRotation.x
      value: 0
      objectReference: {fileID: 0}
    - target: {fileID: 4483935580360448, guid: f724abf575e749e468575369197699a1, type: 3}
      propertyPath: m_LocalRotation.y
      value: 0
      objectReference: {fileID: 0}
    - target: {fileID: 4483935580360448, guid: f724abf575e749e468575369197699a1, type: 3}
      propertyPath: m_LocalRotation.z
      value: 0
      objectReference: {fileID: 0}
    m_RemovedComponents: []
  m_SourcePrefab: {fileID: 100100000, guid: f724abf575e749e468575369197699a1, type: 3}
--- !u!1001 &1524849824
PrefabInstance:
  m_ObjectHideFlags: 0
  serializedVersion: 2
  m_Modification:
    m_TransformParent: {fileID: 0}
    m_Modifications:
    - target: {fileID: 4462966950510562, guid: 0193757eff05aa54699c27d502cf604e, type: 3}
      propertyPath: m_RootOrder
      value: 14
      objectReference: {fileID: 0}
    - target: {fileID: 4462966950510562, guid: 0193757eff05aa54699c27d502cf604e, type: 3}
      propertyPath: m_LocalPosition.x
      value: 4.13
      objectReference: {fileID: 0}
    - target: {fileID: 4462966950510562, guid: 0193757eff05aa54699c27d502cf604e, type: 3}
      propertyPath: m_LocalPosition.y
      value: -0.505
      objectReference: {fileID: 0}
    - target: {fileID: 4462966950510562, guid: 0193757eff05aa54699c27d502cf604e, type: 3}
      propertyPath: m_LocalPosition.z
      value: 0.39
      objectReference: {fileID: 0}
    - target: {fileID: 4462966950510562, guid: 0193757eff05aa54699c27d502cf604e, type: 3}
      propertyPath: m_LocalRotation.w
      value: 1
      objectReference: {fileID: 0}
    - target: {fileID: 4462966950510562, guid: 0193757eff05aa54699c27d502cf604e, type: 3}
      propertyPath: m_LocalRotation.x
      value: 0
      objectReference: {fileID: 0}
    - target: {fileID: 4462966950510562, guid: 0193757eff05aa54699c27d502cf604e, type: 3}
      propertyPath: m_LocalRotation.y
      value: 0
      objectReference: {fileID: 0}
    - target: {fileID: 4462966950510562, guid: 0193757eff05aa54699c27d502cf604e, type: 3}
      propertyPath: m_LocalRotation.z
      value: 0
      objectReference: {fileID: 0}
    m_RemovedComponents: []
  m_SourcePrefab: {fileID: 100100000, guid: 0193757eff05aa54699c27d502cf604e, type: 3}
--- !u!1001 &1528002157
PrefabInstance:
  m_ObjectHideFlags: 0
  serializedVersion: 2
  m_Modification:
    m_TransformParent: {fileID: 0}
    m_Modifications:
    - target: {fileID: 4359833316065886, guid: 60d04e03674e3464b8b06664ba585a56, type: 3}
      propertyPath: m_RootOrder
      value: 4
      objectReference: {fileID: 0}
    - target: {fileID: 4359833316065886, guid: 60d04e03674e3464b8b06664ba585a56, type: 3}
      propertyPath: m_LocalPosition.x
      value: -1.33
      objectReference: {fileID: 0}
    - target: {fileID: 4359833316065886, guid: 60d04e03674e3464b8b06664ba585a56, type: 3}
      propertyPath: m_LocalPosition.y
      value: -0.607
      objectReference: {fileID: 0}
    - target: {fileID: 4359833316065886, guid: 60d04e03674e3464b8b06664ba585a56, type: 3}
      propertyPath: m_LocalPosition.z
      value: 2.68
      objectReference: {fileID: 0}
    - target: {fileID: 4359833316065886, guid: 60d04e03674e3464b8b06664ba585a56, type: 3}
      propertyPath: m_LocalRotation.w
      value: 1
      objectReference: {fileID: 0}
    - target: {fileID: 4359833316065886, guid: 60d04e03674e3464b8b06664ba585a56, type: 3}
      propertyPath: m_LocalRotation.x
      value: 0
      objectReference: {fileID: 0}
    - target: {fileID: 4359833316065886, guid: 60d04e03674e3464b8b06664ba585a56, type: 3}
      propertyPath: m_LocalRotation.y
      value: 0
      objectReference: {fileID: 0}
    - target: {fileID: 4359833316065886, guid: 60d04e03674e3464b8b06664ba585a56, type: 3}
      propertyPath: m_LocalRotation.z
      value: 0
      objectReference: {fileID: 0}
    m_RemovedComponents: []
  m_SourcePrefab: {fileID: 100100000, guid: 60d04e03674e3464b8b06664ba585a56, type: 3}
--- !u!1001 &1601108182
PrefabInstance:
  m_ObjectHideFlags: 0
  serializedVersion: 2
  m_Modification:
    m_TransformParent: {fileID: 0}
    m_Modifications:
    - target: {fileID: 4167875814956164, guid: c86f72880f77a234abcd1ec671ea4333, type: 3}
      propertyPath: m_RootOrder
      value: 13
      objectReference: {fileID: 0}
    - target: {fileID: 4167875814956164, guid: c86f72880f77a234abcd1ec671ea4333, type: 3}
      propertyPath: m_LocalPosition.x
      value: 2.37
      objectReference: {fileID: 0}
    - target: {fileID: 4167875814956164, guid: c86f72880f77a234abcd1ec671ea4333, type: 3}
      propertyPath: m_LocalPosition.y
      value: -0.657
      objectReference: {fileID: 0}
    - target: {fileID: 4167875814956164, guid: c86f72880f77a234abcd1ec671ea4333, type: 3}
      propertyPath: m_LocalPosition.z
      value: 0.14
      objectReference: {fileID: 0}
    - target: {fileID: 4167875814956164, guid: c86f72880f77a234abcd1ec671ea4333, type: 3}
      propertyPath: m_LocalRotation.w
      value: 1
      objectReference: {fileID: 0}
    - target: {fileID: 4167875814956164, guid: c86f72880f77a234abcd1ec671ea4333, type: 3}
      propertyPath: m_LocalRotation.x
      value: 0
      objectReference: {fileID: 0}
    - target: {fileID: 4167875814956164, guid: c86f72880f77a234abcd1ec671ea4333, type: 3}
      propertyPath: m_LocalRotation.y
      value: 0
      objectReference: {fileID: 0}
    - target: {fileID: 4167875814956164, guid: c86f72880f77a234abcd1ec671ea4333, type: 3}
      propertyPath: m_LocalRotation.z
      value: 0
      objectReference: {fileID: 0}
    m_RemovedComponents: []
  m_SourcePrefab: {fileID: 100100000, guid: c86f72880f77a234abcd1ec671ea4333, type: 3}
--- !u!1001 &1606958506
PrefabInstance:
  m_ObjectHideFlags: 0
  serializedVersion: 2
  m_Modification:
    m_TransformParent: {fileID: 0}
    m_Modifications:
    - target: {fileID: 4709997062875708, guid: bcb374fca17148d4095d97a4db68ba59, type: 3}
      propertyPath: m_RootOrder
      value: 8
      objectReference: {fileID: 0}
    - target: {fileID: 4709997062875708, guid: bcb374fca17148d4095d97a4db68ba59, type: 3}
      propertyPath: m_LocalPosition.x
      value: 1.02
      objectReference: {fileID: 0}
    - target: {fileID: 4709997062875708, guid: bcb374fca17148d4095d97a4db68ba59, type: 3}
      propertyPath: m_LocalPosition.y
      value: -0.75
      objectReference: {fileID: 0}
    - target: {fileID: 4709997062875708, guid: bcb374fca17148d4095d97a4db68ba59, type: 3}
      propertyPath: m_LocalPosition.z
      value: 3.77
      objectReference: {fileID: 0}
    - target: {fileID: 4709997062875708, guid: bcb374fca17148d4095d97a4db68ba59, type: 3}
      propertyPath: m_LocalRotation.w
      value: 1
      objectReference: {fileID: 0}
    - target: {fileID: 4709997062875708, guid: bcb374fca17148d4095d97a4db68ba59, type: 3}
      propertyPath: m_LocalRotation.x
      value: 0
      objectReference: {fileID: 0}
    - target: {fileID: 4709997062875708, guid: bcb374fca17148d4095d97a4db68ba59, type: 3}
      propertyPath: m_LocalRotation.y
      value: 0
      objectReference: {fileID: 0}
    - target: {fileID: 4709997062875708, guid: bcb374fca17148d4095d97a4db68ba59, type: 3}
      propertyPath: m_LocalRotation.z
      value: 0
      objectReference: {fileID: 0}
    m_RemovedComponents: []
  m_SourcePrefab: {fileID: 100100000, guid: bcb374fca17148d4095d97a4db68ba59, type: 3}
--- !u!1001 &1790113087
PrefabInstance:
  m_ObjectHideFlags: 0
  serializedVersion: 2
  m_Modification:
    m_TransformParent: {fileID: 0}
    m_Modifications:
    - target: {fileID: 4815172282652088, guid: 7d77f7f02e3e5954f80bc2510cefc0a8, type: 3}
      propertyPath: m_RootOrder
      value: 7
      objectReference: {fileID: 0}
    - target: {fileID: 4815172282652088, guid: 7d77f7f02e3e5954f80bc2510cefc0a8, type: 3}
      propertyPath: m_LocalPosition.x
      value: 1.02
      objectReference: {fileID: 0}
    - target: {fileID: 4815172282652088, guid: 7d77f7f02e3e5954f80bc2510cefc0a8, type: 3}
      propertyPath: m_LocalPosition.y
      value: -0.75
      objectReference: {fileID: 0}
    - target: {fileID: 4815172282652088, guid: 7d77f7f02e3e5954f80bc2510cefc0a8, type: 3}
      propertyPath: m_LocalPosition.z
      value: 3.77
      objectReference: {fileID: 0}
    - target: {fileID: 4815172282652088, guid: 7d77f7f02e3e5954f80bc2510cefc0a8, type: 3}
      propertyPath: m_LocalRotation.w
      value: 1
      objectReference: {fileID: 0}
    - target: {fileID: 4815172282652088, guid: 7d77f7f02e3e5954f80bc2510cefc0a8, type: 3}
      propertyPath: m_LocalRotation.x
      value: 0
      objectReference: {fileID: 0}
    - target: {fileID: 4815172282652088, guid: 7d77f7f02e3e5954f80bc2510cefc0a8, type: 3}
      propertyPath: m_LocalRotation.y
      value: 0
      objectReference: {fileID: 0}
    - target: {fileID: 4815172282652088, guid: 7d77f7f02e3e5954f80bc2510cefc0a8, type: 3}
      propertyPath: m_LocalRotation.z
      value: 0
      objectReference: {fileID: 0}
    m_RemovedComponents: []
  m_SourcePrefab: {fileID: 100100000, guid: 7d77f7f02e3e5954f80bc2510cefc0a8, type: 3}
--- !u!1001 &1898482912
PrefabInstance:
  m_ObjectHideFlags: 0
  serializedVersion: 2
  m_Modification:
    m_TransformParent: {fileID: 0}
    m_Modifications:
    - target: {fileID: 4294109675491792, guid: 3a95d7ebc00ebd9439d53c491d376337, type: 3}
      propertyPath: m_RootOrder
      value: 11
      objectReference: {fileID: 0}
    - target: {fileID: 4294109675491792, guid: 3a95d7ebc00ebd9439d53c491d376337, type: 3}
      propertyPath: m_LocalPosition.x
      value: 3.8
      objectReference: {fileID: 0}
    - target: {fileID: 4294109675491792, guid: 3a95d7ebc00ebd9439d53c491d376337, type: 3}
      propertyPath: m_LocalPosition.y
      value: -0.593
      objectReference: {fileID: 0}
    - target: {fileID: 4294109675491792, guid: 3a95d7ebc00ebd9439d53c491d376337, type: 3}
      propertyPath: m_LocalPosition.z
      value: 3.85
      objectReference: {fileID: 0}
    - target: {fileID: 4294109675491792, guid: 3a95d7ebc00ebd9439d53c491d376337, type: 3}
      propertyPath: m_LocalRotation.w
      value: 1
      objectReference: {fileID: 0}
    - target: {fileID: 4294109675491792, guid: 3a95d7ebc00ebd9439d53c491d376337, type: 3}
      propertyPath: m_LocalRotation.x
      value: 0
      objectReference: {fileID: 0}
    - target: {fileID: 4294109675491792, guid: 3a95d7ebc00ebd9439d53c491d376337, type: 3}
      propertyPath: m_LocalRotation.y
      value: 0
      objectReference: {fileID: 0}
    - target: {fileID: 4294109675491792, guid: 3a95d7ebc00ebd9439d53c491d376337, type: 3}
      propertyPath: m_LocalRotation.z
      value: 0
      objectReference: {fileID: 0}
    m_RemovedComponents: []
  m_SourcePrefab: {fileID: 100100000, guid: 3a95d7ebc00ebd9439d53c491d376337, type: 3}
