newmtl Solid
Ka 1.0 1.0 1.0
Kd 1.0 1.0 1.0
Ks 0.0 0.0 0.0
d 1.0
Ns 0.0
illum 0

newmtl Sphynx
Ka 1.0 1.0 1.0
Kd 1.0 1.0 1.0
Ks 0.0 0.0 0.0
d 1.0
Ns 0.0
illum 0
map_Kd Sphynx.jpg
map_Bump Sphynx_normal.jpg
map_ao Sphynx_occlusion.jpg

